MODa v1.62

>>/home/pgoney/Workspace/graduation-portfolio/moda_v1.62/test/foo.mgf	3	1380.7254	2	0
1380.6493	0.0762	58	0.9708	K.DQLTC+57NKFDLK.V	TEST_PROTEIN	2416~2426
1380.6064	0.1191	53	0.9147	Q.QDMQLL+195TPIQ.Q	TEST_PROTEIN	3147~3156
1380.6707	0.0547	52	0.9006	W.DQLTC+57NKFDLK-57G.Q	TEST_PROTEIN	5393~5404
1380.7096	0.0159	51	0.8006	K.KDLTR+65LSQDLQ.Q	TEST_PROTEIN	3136~3146
1380.8715	-0.1460	48	0.8069	K.KLDTKVHL-56KDLK.K	TEST_PROTEIN	3124~3135

>>/home/pgoney/Workspace/graduation-portfolio/moda_v1.62/test/foo.mgf	1	2545.0702	3	0
2545.0308	0.0394	75	0.9813	R.WSGFSGGAIE+57CETAENTEEC+57IAK.I	TEST_PROTEIN	21316~21338
2545.1319	-0.0617	65	0.7593	D.R-99WSGFSGGAIECETAENTEEC+57IAK.I	TEST_PROTEIN	21315~21338
2545.1148	-0.0446	64	0.7816	R.WSGFSGGAIE+57CETAENTEE-56CIAKI.M	TEST_PROTEIN	21316~21339
2545.0369	0.0333	61	0.3193	D.R-99WSGFSGGAIECETAENTEEC+185IA.K	TEST_PROTEIN	21315~21337
2545.2159	-0.1458	57	0.2106	D.R-99WSGFSGGAIECETAENTEE-56CIAKI.M	TEST_PROTEIN	21315~21339

>>/home/pgoney/Workspace/graduation-portfolio/moda_v1.62/test/foo.mgf	2	2791.4392	3	0
2791.4464	-0.0072	61	0.9924	K.AAGLATGNVSTAELQDATPAALVAHVTSR.K	TEST_PROTEIN	15354~15382
2791.4093	0.0299	55	0.9833	A.A+71GLATGNVSTAELQDATPAALVAHVTSR.K	TEST_PROTEIN	15355~15382
2791.3453	0.0939	55	0.9776	K.AAGLATGNVSTAELQDATPAALVAHV+156TS.R	TEST_PROTEIN	15354~15381
2791.3507	0.0885	54	0.9788	G.L+199ATGNVSTAELQDATPAALVAHVTSR.K	TEST_PROTEIN	15357~15382
2791.3722	0.0670	52	0.9631	A.G+142LATGNVSTAELQDATPAALVAHVTSR.K	TEST_PROTEIN	15356~15382

>>/home/pgoney/Workspace/graduation-portfolio/moda_v1.62/test/foo.mgf	4	1801.6454	2	0
1801.9011	-0.2557	56	0.9538	G.KC-14VPVCGVPREPFEEK.Q	TEST_PROTEIN	4536~4551
1801.9226	-0.2771	56	0.9114	R.GK-71CVPVCGVPREPFEEK.Q	TEST_PROTEIN	4535~4551
1801.8062	-0.1607	56	0.9114	K.C+114VPVCGVPREPFEEK.Q	TEST_PROTEIN	4537~4551
1801.8062	-0.1607	42	0.5482	G.KC-14VPVCGVPREPFEE+128.K	TEST_PROTEIN	4536~4550
1801.8276	-0.1822	41	0.4964	R.GK-71CVPVCGVPREPFEE+128.K	TEST_PROTEIN	4535~4550

>>/home/pgoney/Workspace/graduation-portfolio/moda_v1.62/test/foo.mgf	6	1500.6654	2	0
1500.7355	-0.0700	44	0.8785	R.MELERPGGNEITR.G	TEST_PROTEIN	4522~4534
1500.7569	-0.0915	38	0.6733	R.MELERPGGNEITR-57G.K	TEST_PROTEIN	4522~4535
1500.6950	-0.0295	37	0.6733	M.E+131LERPGGNEITR.G	TEST_PROTEIN	4523~4534
1500.8041	-0.1387	36	0.6217	K.FLERLK+83NEITR.D	TEST_PROTEIN	5124~5134
1500.8072	-0.1417	33	0.0886	I.P+49ELMR-17VLVDLER.L	TEST_PROTEIN	19318~19329

>>/home/pgoney/Workspace/graduation-portfolio/moda_v1.62/test/foo.mgf	7	1994.7094	2	0
1994.8792	-0.1697	102	0.9997	K.C+40HAGHLN+1GVYYQGGTYSK.A	TEST_PROTEIN	894~911
1994.9755	-0.2660	102	0.9997	R.PPH-51AGHLN+1GVYYQGGTYSK.V	TEST_PROTEIN	1441~1459
1994.8700	-0.1605	102	0.9997	C.H+143AGHLN+1GVYYQGGTYSK.A	TEST_PROTEIN	895~911
1994.9163	-0.2068	96	0.9995	K.C+40HAGHLN+1GVYYQGGTYSK-71A.S	TEST_PROTEIN	894~912
1994.9071	-0.1976	96	0.9995	C.H+143AGHLN+1GVYYQGGTYSK-71A.S	TEST_PROTEIN	895~912

>>/home/pgoney/Workspace/graduation-portfolio/moda_v1.62/test/foo.mgf	5	2159.8454	2	0
2159.9872	-0.1417	102	0.9996	K.NWRDPDQTDGLGLSYLSSH.R	TEST_PROTEIN	4554~4572
2159.9443	-0.0988	96	0.9988	N.W+114RDPDQTDGLGLSYLSSH.R	TEST_PROTEIN	4555~4572
2160.0821	-0.2367	96	0.9992	Q.KNW-128RDPDQTDGLGLSYLSSH.R	TEST_PROTEIN	4553~4572
2159.9283	-0.0828	96	0.9988	K.NWRDPDQTDGLGLSYLSS+137.H	TEST_PROTEIN	4554~4571
2160.0232	-0.1778	90	0.9978	Q.KNW-128RDPDQTDGLGLSYLSS+137.H	TEST_PROTEIN	4553~4571

>>/home/pgoney/Workspace/graduation-portfolio/moda_v1.62/test/foo.mgf	8	2073.8054	2	0
2073.9016	-0.0961	71	0.9918	K.M+58CPQLQQYEMHGPEGLR.L	TEST_PROTEIN	4588~4604
2073.9965	-0.1911	71	0.9918	V.K-70MCPQLQQYEMHGPEGLR.L	TEST_PROTEIN	4587~4604
2074.0027	-0.1972	71	0.9918	C.R-98MCPQLQQYEMHGPEGLR.K	TEST_PROTEIN	5757~5774
2073.8611	-0.0556	69	0.9861	M.C+189PQLQQYEMHGPEGLR.L	TEST_PROTEIN	4589~4604
2073.8954	-0.0900	63	0.9742	V.K-70MCPQLQQYEMHGPEG+156L.R	TEST_PROTEIN	4587~4603

>>/home/pgoney/Workspace/graduation-portfolio/moda_v1.62/test/foo.mgf	10	1533.7054	2	0
1533.7728	-0.0674	63	0.9901	R.WKNFPSPVDAAFR.K	TEST_PROTEIN	5067~5079
1533.6935	0.0119	58	0.9629	W.K+186NFPSPVDAAFR.K	TEST_PROTEIN	5068~5079
1533.6717	0.0337	52	0.8760	R.WKNFPSPVDAAF+156.R	TEST_PROTEIN	5067~5078
1533.8208	-0.1154	41	0.2649	G.NSLGGFAKYW-110QAFR.Q	TEST_PROTEIN	17088~17101
1533.8423	-0.1368	35	0.0863	M.GN-57SLGGFAKYW-110QAFR.Q	TEST_PROTEIN	17087~17101

>>/home/pgoney/Workspace/graduation-portfolio/moda_v1.62/test/foo.mgf	12	1941.5694	2	0
1941.6996	-0.1302	62	0.7995	S.SSDAS-30DCHGEDSQAFC+57EK.K	TEST_PROTEIN	5429~5446
1941.7946	-0.2251	59	0.7506	S.SSDAS-30DCHGEDSQAFCE-71KK.A	TEST_PROTEIN	5429~5447
1941.6676	-0.0981	59	0.7120	Y.S+57DASDCHGEDSQAFC+57EK.F	TEST_PROTEIN	519~535
1941.7309	-0.1615	59	0.7794	D.Y-106SDASDCHGEDSQAFC+57EK.F	TEST_PROTEIN	518~535
1941.7625	-0.1931	56	0.7273	S.S+57DASDCHGEDSQAFCE-71KK.A	TEST_PROTEIN	5430~5447

>>/home/pgoney/Workspace/graduation-portfolio/moda_v1.62/test/foo.mgf	11	1836.7734	2	0
1836.8795	-0.1060	76	0.9972	V.SGAQATWTELPWPHEK.E	TEST_PROTEIN	4425~4440
1836.8474	-0.0740	73	0.9960	S.GAQ+87ATWTELPWPHEK.E	TEST_PROTEIN	4426~4440
1836.8260	-0.0525	70	0.9891	G.A+144QATWTELPWPHEK.E	TEST_PROTEIN	4427~4440
1836.7845	-0.0111	65	0.9834	V.SGAQATWTELPWPHE+128.K	TEST_PROTEIN	4425~4439
1836.9221	-0.1486	55	0.8451	V.SGAQATWTELPW-129PHEKE.K	TEST_PROTEIN	4425~4441

>>/home/pgoney/Workspace/graduation-portfolio/moda_v1.62/test/foo.mgf	9	1814.8854	2	0
1814.8142	0.0713	45	0.5017	K.LGYVTADGETSGSITCGK+57.F	TEST_PROTEIN	5106~5123
1814.8826	0.0029	45	0.5017	K.LGYVTADGETSGSITCGKF-90.L	TEST_PROTEIN	5106~5124
1814.7192	0.1663	45	0.4297	K.LGYVTADGETSGSITCG+185.K	TEST_PROTEIN	5106~5122
1814.8458	0.0397	39	0.3645	K.LGYVW-85ADGETSGSITCGK+57.D	TEST_PROTEIN	5081~5098
1814.8727	0.0127	39	0.2777	K.LGYVW-85ADGETSGSITCGK-58D.G	TEST_PROTEIN	5081~5099

>>/home/pgoney/Workspace/graduation-portfolio/moda_v1.62/test/foo.mgf	16	1577.7554	2	0
1577.6793	0.0761	86	0.9989	A.H+114YGGFTVQNEANK.K	TEST_PROTEIN	4470~4482
1577.7164	0.0390	84	0.9988	R.A+43HYGGFTVQNEANK.K	TEST_PROTEIN	4469~4482
1577.6215	0.1340	71	0.9905	R.A+43HYGGFTVQNEAN+128.K	TEST_PROTEIN	4469~4481
1577.7575	-0.0020	46	0.4815	F.F-34FAKDR+163RGGYGA-8L.A	TEST_PROTEIN	4408~4420

>>/home/pgoney/Workspace/graduation-portfolio/moda_v1.62/test/foo.mgf	15	1993.7814	2	0
1993.8792	-0.0977	108	0.9999	K.C+40HAGHLNGVYYQGGTYSK.A	TEST_PROTEIN	894~911
1993.9755	-0.1940	108	0.9999	R.PPH-51AGHLNGVYYQGGTYSK.V	TEST_PROTEIN	1441~1459
1993.8700	-0.0885	108	0.9999	C.H+143AGHLNGVYYQGGTYSK.A	TEST_PROTEIN	895~911
1993.9227	-0.1413	104	0.9997	P.PHA+46GHLNGVYYQGGTYSK.V	TEST_PROTEIN	1442~1459
1993.9163	-0.1348	102	0.9997	K.C+40HAGHLNGVYYQGGTYSK-71A.S	TEST_PROTEIN	894~912

>>/home/pgoney/Workspace/graduation-portfolio/moda_v1.62/test/foo.mgf	13	1664.5514	2	0
1664.7741	-0.2226	68	0.9916	R.DSQEEEKTEALTSAK.M	TEST_PROTEIN	29600~29614
1664.7471	-0.1957	62	0.9731	D.S+115QEEEKTEALTSAK.M	TEST_PROTEIN	29601~29614
1664.6791	-0.1277	58	0.9300	R.DSQEEEKTEALTSA+128.K	TEST_PROTEIN	29600~29613
1664.6420	-0.0905	54	0.8813	R.DSQEEEKTEALTS+199.A	TEST_PROTEIN	29600~29612
1664.7586	-0.2071	42	0.4934	E.KM-57KEEEV+130EALMAGQ.E	TEST_PROTEIN	20518~20531

>>/home/pgoney/Workspace/graduation-portfolio/moda_v1.62/test/foo.mgf	14	1664.5514	2	0
1664.7741	-0.2226	79	0.9933	R.DSQEEEKTEALTSAK.M	TEST_PROTEIN	29600~29614
1664.7471	-0.1957	73	0.9792	D.S+115QEEEKTEALTSAK.M	TEST_PROTEIN	29601~29614
1664.6791	-0.1277	67	0.9289	R.DSQEEEKTEALTSA+128.K	TEST_PROTEIN	29600~29613
1664.6420	-0.0905	61	0.9078	R.DSQEEEKTEALTS+199.A	TEST_PROTEIN	29600~29612
1664.7586	-0.2071	54	0.6938	E.KM-57KEEEV+130EALMAGQ.E	TEST_PROTEIN	20518~20531

>>/home/pgoney/Workspace/graduation-portfolio/moda_v1.62/test/foo.mgf	17	2368.8054	2	0
2369.1877	-0.3822	97	0.9984	E.Q-17QNAQGGFSSTQDTVVALHALSK.Y	TEST_PROTEIN	1629~1651
2369.1291	-0.3236	97	0.9976	Q.Q+111NAQGGFSSTQDTVVALHALSK.Y	TEST_PROTEIN	1630~1651
2369.0927	-0.2873	91	0.9943	E.Q-17QNAQGGFSSTQDTVVALHAL+128S.K	TEST_PROTEIN	1629~1650

>>/home/pgoney/Workspace/graduation-portfolio/moda_v1.62/test/foo.mgf	19	1711.6074	2	0
1710.6878	0.9196	38	0.3429	K.HGTDDGVVW+167MNWK.G	TEST_PROTEIN	261~273
1710.7092	0.8982	32	0.1248	K.HGTDDGVVW+166MNWK-56G.S	TEST_PROTEIN	261~274
1710.7718	0.8356	31	0.1741	K.HGTDDGVVW+166MNW-112KI.H	TEST_PROTEIN	4793~4806
1710.7464	0.8610	31	0.1149	K.HGTDDGVVW+166MNW-127KQ.C	TEST_PROTEIN	1169~1182
1710.7283	0.8791	28	0.0546	K.HGTDDGVVWM+36NWKM.G	TEST_PROTEIN	5873~5886

>>/home/pgoney/Workspace/graduation-portfolio/moda_v1.62/test/foo.mgf	21	1772.6832	2	0
1771.7998	0.8835	38	0.1529	K.P+171IDWGAASPAVQSFR.R	TEST_PROTEIN	11004~11018
1771.8947	0.7885	35	0.1264	R.K+43PIDWGAASPAVQSFR.R	TEST_PROTEIN	11003~11018
1771.7998	0.8835	32	0.1299	R.RFS+18QVAPSAAGWDIP+153.K	TEST_PROTEIN	13348~13362
1771.7936	0.8896	32	0.1154	R.F+174SQVAPSAAGWDIP+25K.R	TEST_PROTEIN	13349~13363
1772.8947	-0.2115	29	0.0770	R.R+18FSQVAPSAAGWDIP+26K.R	TEST_PROTEIN	13348~13363

>>/home/pgoney/Workspace/graduation-portfolio/moda_v1.62/test/foo.mgf	22	1442.1932	2	0
1441.7252	0.4681	35	0.6688	V.K+28VQDDFVEIHGK.H	TEST_PROTEIN	11807~11818
1441.7936	0.3996	35	0.6688	T.VK-71VQDDFVEIHGK.H	TEST_PROTEIN	11806~11818
1441.6302	0.5630	35	0.6688	K.V+156QDDFVEIHGK.H	TEST_PROTEIN	11808~11818
1441.7252	0.4681	29	0.3814	H.K+18GHIEVFDDQ+10VK.V	TEST_PROTEIN	14293~14304
1441.6302	0.5630	29	0.2605	K.G+146HIEVFDDQ+10VK.V	TEST_PROTEIN	14294~14304

>>/home/pgoney/Workspace/graduation-portfolio/moda_v1.62/test/foo.mgf	18	1490.6854	2	0
1490.7551	-0.0697	48	0.8391	K.GQGTLSVVTMYHAK.A	TEST_PROTEIN	1825~1838
1490.7337	-0.0482	42	0.7481	G.Q+57GTLSVVTMYHAK.A	TEST_PROTEIN	1826~1838
1490.7922	-0.1068	42	0.6166	K.GQGTLSVVTMYHAK-71A.K	TEST_PROTEIN	1825~1839
1490.6602	0.0253	39	0.5322	K.GQGTLSVVTMYHA+128.K	TEST_PROTEIN	1825~1837
1490.7708	-0.0853	36	0.4781	G.Q+57GTLSVVTMYHAK-71A.K	TEST_PROTEIN	1826~1839

>>/home/pgoney/Workspace/graduation-portfolio/moda_v1.62/test/foo.mgf	24	1563.9204	2	0
1563.7398	0.1807	35	0.6711	K.I+156ILYENPNFTGK.K	TEST_PROTEIN	10537~10548
1563.8348	0.0857	33	0.6711	H.K+28IILYENPNFTGK.K	TEST_PROTEIN	10536~10548
1563.8348	0.0857	27	0.3863	K.K+18GTFNPNEYLII+10K.H	TEST_PROTEIN	13013~13025
1563.7398	0.1807	27	0.3863	K.K+18GTFNPNEYLII+138.K	TEST_PROTEIN	13013~13024
1563.7398	0.1807	27	0.2724	K.G+146TFNPNEYLII+10K.H	TEST_PROTEIN	13014~13025

>>/home/pgoney/Workspace/graduation-portfolio/moda_v1.62/test/foo.mgf	23	1451.1241	2	0
1450.7398	0.3844	55	0.9719	K.I+43ILYENPNFTGK.K	TEST_PROTEIN	10537~10548
1450.6557	0.4684	55	0.9552	I.I+156LYENPNFTGK.K	TEST_PROTEIN	10538~10548
1450.7398	0.3844	48	0.9018	K.K+18GTFNPNEYLII+25.K	TEST_PROTEIN	13013~13024
1450.6557	0.4684	47	0.8643	K.K+18GTFNPNEYLI+138.I	TEST_PROTEIN	13013~13023
1450.6448	0.4793	42	0.6345	K.G+146TFNPNEYLI+25I.K	TEST_PROTEIN	13014~13024

>>/home/pgoney/Workspace/graduation-portfolio/moda_v1.62/test/foo.mgf	20	1879.0932	2	0
1877.8597	1.2335	32	0.1541	M.E+42EEIAALVIDNGSGMC-13KA.G	TEST_PROTEIN	26752~26769
1877.8226	1.2706	32	0.2102	M.E+42EEIAALVIDNGSGMC+58K.A	TEST_PROTEIN	26752~26768
1877.8812	1.2121	32	0.1541	M.E+42EEIAALVIDNGSGMCK-70AG.F	TEST_PROTEIN	26752~26770
1877.8171	1.2761	32	0.1541	E.E+171EIAALVIDNGSGMC-13KA.G	TEST_PROTEIN	26753~26769
1877.8386	1.2547	32	0.1541	E.E+171EIAALVIDNGSGMCK-70AG.F	TEST_PROTEIN	26753~26770

>>/home/pgoney/Workspace/graduation-portfolio/moda_v1.62/test/foo.mgf	25	1802.6332	2	0
1801.8947	0.7385	44	0.7119	R.K+73PIDWGAASPAVQSFR.R	TEST_PROTEIN	11003~11018
1801.9958	0.6374	44	0.7119	Y.R-83KPIDWGAASPAVQSFR.R	TEST_PROTEIN	11002~11018
1801.8947	0.7385	38	0.4730	R.R+18FSQVAPSAAGWDIP+55K.R	TEST_PROTEIN	13348~13363
1801.8947	0.7385	36	0.4447	Y.R-83KPIDWGAASPAVQS+156F.R	TEST_PROTEIN	11002~11017
1802.9400	-0.3067	25	0.0260	K.KVKDGW+90SAQPTCIK-62SK.E	TEST_PROTEIN	1265~1280

>>/home/pgoney/Workspace/graduation-portfolio/moda_v1.62/test/foo.mgf	27	2130.6332	2	0
2131.0701	-0.4369	22	0.0084	K.PNNLKPVV+58AEFHGTKD-31NPQ.T	TEST_PROTEIN	21028~21046
2131.0115	-0.3783	22	0.0084	K.PNNLKPVV+58AEFHGTKD+97NP.Q	TEST_PROTEIN	21028~21045
2130.9979	-0.3647	19	0.0041	L.DIPK+128MLDAEDIVNTPK-7PD.E	TEST_PROTEIN	26080~26097
2129.1581	1.4751	17	0.0021	D.PENF+18RLLGNVLVIVLS+55HH.F	TEST_PROTEIN	23153~23170
2130.0130	0.6203	17	0.0098	N.D+52KGPGGVWAAEAISDAR-64WQE.E	TEST_PROTEIN	4912~4931

>>/home/pgoney/Workspace/graduation-portfolio/moda_v1.62/test/foo.mgf	26	2430.6732	2	0
2430.0950	0.5782	60	0.5572	K.K+72MEIIDDDVPSFHAHGYQEK.V	TEST_PROTEIN	10549~10568
2430.0950	0.5782	56	0.3723	V.K+18EQYGHAHFSPVDDDIIE+54MK.K	TEST_PROTEIN	12993~13012
2430.1634	0.5098	56	0.3723	S.VKEQY-81GHAHFSPVDDDIIE+54MK.K	TEST_PROTEIN	12992~13012
2430.0685	0.6048	56	0.3723	S.VKEQY-81GHAHFSPVDDDIIE+182M.K	TEST_PROTEIN	12992~13011
2430.1900	0.4833	55	0.3779	G.K-56KMEIIDDDVPSFHAHGYQEK.V	TEST_PROTEIN	10548~10568

>>/home/pgoney/Workspace/graduation-portfolio/moda_v1.62/test/foo.mgf	28	1895.9532	2	0
1895.7899	0.1633	53	0.8421	K.G+16LMMELSEDC+57PSIQDR.F	TEST_PROTEIN	11471~11486
1895.7685	0.1848	53	0.8421	G.L+73MMELSEDC+57PSIQDR.F	TEST_PROTEIN	11472~11486
1895.7685	0.1848	48	0.8737	F.R+18DQISPC+57DESLEM+55ML.G	TEST_PROTEIN	13930~13944
1895.7899	0.1633	47	0.7524	F.R+18DQISPC+57DESLEM-2MLG.K	TEST_PROTEIN	13930~13945
1895.8935	0.0598	32	0.0124	S.KAGAFCLSEDAGLGISST+12AS.L	TEST_PROTEIN	118~137

>>/home/pgoney/Workspace/graduation-portfolio/moda_v1.62/test/foo.mgf	29	2417.1299	2	0
2416.0950	1.0349	57	0.6605	K.K+58MEIIDDDVPSFHAHGYQEK.V	TEST_PROTEIN	10549~10568
2416.1900	0.9400	57	0.6989	G.K-70KMEIIDDDVPSFHAHGYQEK.V	TEST_PROTEIN	10548~10568
2416.0000	1.1299	57	0.7347	K.M+186EIIDDDVPSFHAHGYQEK.V	TEST_PROTEIN	10550~10568
2416.0000	1.1299	52	0.5994	V.KEQY+18GHAHFSPVDDDIIE+168M.K	TEST_PROTEIN	12993~13011
2416.0000	1.1299	52	0.3967	K.EQYGHA+146HFSPVDDDIIE+40MK.K	TEST_PROTEIN	12994~13012

>>/home/pgoney/Workspace/graduation-portfolio/moda_v1.62/test/foo.mgf	31	1346.0730	2	0
1344.6223	1.4507	54	0.9266	R.NALFC+48LESAW+16K.T	TEST_PROTEIN	386~396
1344.6809	1.3921	54	0.9266	K.NALFC+48LESAW-112KQ.G	TEST_PROTEIN	5900~5911
1344.6700	1.4030	48	0.9161	R.NALFC+48LESAW-85KT.A	TEST_PROTEIN	386~397
1344.7019	1.3711	38	0.1825	R.QGLL-11PVLESF+126K.V	TEST_PROTEIN	678~688
1344.6928	1.3802	37	0.1207	K.YGTKGELQ+51SAIK.S	TEST_PROTEIN	15771~15782

>>/home/pgoney/Workspace/graduation-portfolio/moda_v1.62/test/foo.mgf	32	1333.0698	2	0
1332.6223	0.4475	54	0.9436	R.NALFC+48LESAW+4K.T	TEST_PROTEIN	386~396
1332.6809	0.3889	54	0.9436	K.NALFC+48LESAW-124KQ.G	TEST_PROTEIN	5900~5911
1332.6700	0.3998	49	0.8547	R.NALFC+48LESAW-97KT.A	TEST_PROTEIN	386~397
1332.5274	0.5425	49	0.8547	R.NALFC+48LESAW+132.K	TEST_PROTEIN	386~395
1332.6037	0.4661	38	0.2437	F.AVKFYTED+4GNW.D	TEST_PROTEIN	18138~18148

>>/home/pgoney/Workspace/graduation-portfolio/moda_v1.62/test/foo.mgf	30	2374.6914	2	0
2374.0950	0.5964	45	0.3650	K.K+16MEIIDDDVPSFHAHGYQEK.V	TEST_PROTEIN	10549~10568
2374.0000	0.6914	45	0.3650	K.M+144EIIDDDVPSFHAHGYQEK.V	TEST_PROTEIN	10550~10568
2374.4778	0.2136	25	0.0287	G.KGLGKGGAKR-74HRKVLR-39DNIQ-14GIT.K	TEST_PROTEIN	29623~29645
2374.4302	0.2613	25	0.0358	G.KGLGKGGAKR-74HRKVLR-39DNIQ+87GI.T	TEST_PROTEIN	29623~29644
2374.3461	0.3454	25	0.0358	G.KGLGKGGAKR-74HRKVLR-39DNIQ+200G.I	TEST_PROTEIN	29623~29643

>>/home/pgoney/Workspace/graduation-portfolio/moda_v1.62/test/foo.mgf	34	1855.0647	2	0
1854.9748	0.0898	70	0.9928	A.EQLR-28QEQALLEEIER.K	TEST_PROTEIN	341~355
1855.0119	0.0527	70	0.9783	R.AEQLR-99QEQALLEEIER.K	TEST_PROTEIN	340~355
1854.9322	0.1324	65	0.9570	E.Q+101LRQEQALLEEIER.K	TEST_PROTEIN	342~355
1854.9963	0.0684	64	0.9599	K.EQLR-28QEQALLEEIER-57G.F	TEST_PROTEIN	30101~30116
1854.8737	0.1910	62	0.9408	A.EQLR-28QEQALLEEIE+156.R	TEST_PROTEIN	341~354

>>/home/pgoney/Workspace/graduation-portfolio/moda_v1.62/test/foo.mgf	35	1550.8287	2	0
1550.6599	0.1688	51	0.9409	E.DFTVSAMHGDM-30DQK.V	TEST_PROTEIN	728~741
1550.6330	0.1957	45	0.8280	D.F+115TVSAMHGDM-30DQK.V	TEST_PROTEIN	729~741
1550.6166	0.2121	37	0.1197	E.G+32GGADTTATD+97IICPM.Y	TEST_PROTEIN	17032~17046
1550.5952	0.2335	37	0.1609	G.G+89GADTTATD+97IICPM.Y	TEST_PROTEIN	17033~17046
1550.5650	0.2638	33	0.3346	E.DFTVSAMHGDM+98DQ.K	TEST_PROTEIN	728~740

>>/home/pgoney/Workspace/graduation-portfolio/moda_v1.62/test/foo.mgf	33	2341.1178	2	0
2341.2029	-0.0852	114	0.9997	A.AAAAAAAAAPAAAATAP-26TTAATTAATAAQ.R	TEST_PROTEIN	447~475
2341.1073	0.0105	109	0.9994	A.AAAAAAAAAPAAAATAP-26TTAATTAAT+199A.A	TEST_PROTEIN	447~473
2341.1658	-0.0481	108	0.9993	A.A+71AAAAAAAPAAAATAP-26TTAATTAATAAQ.R	TEST_PROTEIN	448~475
2341.1444	-0.0266	108	0.9993	A.AAAAAAAAAPAAAATAP-26TTAATTAAT+128AA.Q	TEST_PROTEIN	447~474
2341.1287	-0.0110	108	0.9993	A.A+142AAAAAAPAAAATAP-26TTAATTAATAAQ.R	TEST_PROTEIN	449~475

>>/home/pgoney/Workspace/graduation-portfolio/moda_v1.62/test/foo.mgf	36	1929.8407	2	0
1929.8880	-0.0473	69	0.9782	R.YPIEH+14GIVTNWDDM-30EK.T	TEST_PROTEIN	1050~1065
1929.8247	0.0160	62	0.8421	Y.P+177IEHGIVTNWDDM-30EK.T	TEST_PROTEIN	1051~1065
1929.9036	-0.0630	56	0.6878	K.YPIEHGIITNWDDM-30EK.I	TEST_PROTEIN	14888~14903
1929.7930	0.0476	56	0.6805	R.YPIEH+14GIVTNWDDM+98E.K	TEST_PROTEIN	1050~1064
1929.8403	0.0004	51	0.2867	Y.P+163IEHGIITNWDDM-30EK.I	TEST_PROTEIN	14889~14903

>>/home/pgoney/Workspace/graduation-portfolio/moda_v1.62/test/foo.mgf	37	1979.2588	2	0
1977.9036	1.3551	42	0.1433	K.YPIEH+16GIITNWDDMEK+2.I	TEST_PROTEIN	14888~14903
1977.8880	1.3708	42	0.2759	R.YPIEH+16GIVTNW+14DDMEK+2.T	TEST_PROTEIN	1050~1065
1977.9251	1.3337	42	0.2759	K.YPIEH+16GIVTNW+14DDMEK-69A.T	TEST_PROTEIN	7035~7051
1977.7930	1.4657	35	0.1623	R.YPIEH+16GIVTNW+14DDME+130.K	TEST_PROTEIN	1050~1064
1977.8087	1.4501	34	0.0854	K.YPIEH+16GIITNWDDME+130.K	TEST_PROTEIN	14888~14902

>>/home/pgoney/Workspace/graduation-portfolio/moda_v1.62/test/foo.mgf	38	1737.8537	2	0
1737.9471	-0.0934	59	0.9655	R.LDFLEGDQKPLAQR-19K.L	TEST_PROTEIN	30172~30186
1737.8522	0.0015	55	0.9071	R.LDFLEGDQKPLAQR+109.K	TEST_PROTEIN	30172~30185
1737.8631	-0.0094	52	0.8699	L.D+113FLEGDQKPLAQR-19K.L	TEST_PROTEIN	30173~30186
1737.9427	-0.0890	38	0.1228	G.TKGDSQ+31REIPALKHK.I	TEST_PROTEIN	16063~16077
1737.8223	0.0314	32	0.0402	I.M-18ISNHQNSNRYKHQ.D	TEST_PROTEIN	8655~8668

>>/home/pgoney/Workspace/graduation-portfolio/moda_v1.62/test/foo.mgf	39	2569.5218	2	0
2568.2554	1.2665	80	0.9710	T.A+42AGAAEAAVA+2AVEEVGSAGQ+9FEELLR.K	TEST_PROTEIN	398~423
2568.2183	1.3036	80	0.9710	A.A+113GAAEAAVA+2AVEEVGSAGQ+9FEELLR.K	TEST_PROTEIN	399~423
2568.1811	1.3407	80	0.9777	A.G+184AAEAAVA+2AVEEVGSAGQ+9FEELLR.K	TEST_PROTEIN	400~423
2568.3030	1.2188	75	0.9544	K.TAAGAAE-59AAVA+2AVEEVGSAGQ+9FEELLR.K	TEST_PROTEIN	397~423
2568.2019	1.3199	67	0.6862	K.TAAGAAE-59AAVA+2AVEEVGSAGQ+165FEELL.R	TEST_PROTEIN	397~422

>>/home/pgoney/Workspace/graduation-portfolio/moda_v1.62/test/foo.mgf	40	2566.3478	2	0
2566.2554	0.0924	74	0.9643	T.A+42AGAAEAAVAAVEEVGSAGQ+9FEELLR.K	TEST_PROTEIN	398~423
2566.2183	0.1295	74	0.9643	A.A+113GAAEAAVAAVEEVGSAGQ+9FEELLR.K	TEST_PROTEIN	399~423
2566.1811	0.1666	74	0.9722	A.G+184AAEAAVAAVEEVGSAGQ+9FEELLR.K	TEST_PROTEIN	400~423
2566.3030	0.0447	71	0.9557	K.TAAGAAE-59AAVAAVEEVGSAGQ+9FEELLR.K	TEST_PROTEIN	397~423
2566.2019	0.1458	69	0.8798	K.TAAGAAE-59AAVAAVEEVGSAGQ+165FEELL.R	TEST_PROTEIN	397~422

